GFORTRAN module version '6' created from ../private/ideal_water.f on Mon Apr 23 22:30:22 2012
MD5:5f3c3b9cabe1c72da708b6a36d4046bf -- If you edit this, you'll get what you deserve.

(() () () () () () () () () () () () () () () () () () () () () () ()
() () () ())

()

()

()

()

()

(2 'i_drho' 'ideal_water' 'i_drho' 1 ((PARAMETER UNKNOWN-INTENT
UNKNOWN-PROC UNKNOWN IMPLICIT-SAVE 0 0) (INTEGER 4 0 0 INTEGER ()) 0 0 ()
(CONSTANT (INTEGER 4 0 0 INTEGER ()) 0 '2') () 0 () () () 0 0)
3 'i_drho2' 'ideal_water' 'i_drho2' 1 ((PARAMETER UNKNOWN-INTENT
UNKNOWN-PROC UNKNOWN IMPLICIT-SAVE 0 0) (INTEGER 4 0 0 INTEGER ()) 0 0 ()
(CONSTANT (INTEGER 4 0 0 INTEGER ()) 0 '4') () 0 () () () 0 0)
4 'i_drhodt' 'ideal_water' 'i_drhodt' 1 ((PARAMETER UNKNOWN-INTENT
UNKNOWN-PROC UNKNOWN IMPLICIT-SAVE 0 0) (INTEGER 4 0 0 INTEGER ()) 0 0 ()
(CONSTANT (INTEGER 4 0 0 INTEGER ()) 0 '6') () 0 () () () 0 0)
5 'i_dt' 'ideal_water' 'i_dt' 1 ((PARAMETER UNKNOWN-INTENT UNKNOWN-PROC
UNKNOWN IMPLICIT-SAVE 0 0) (INTEGER 4 0 0 INTEGER ()) 0 0 () (CONSTANT (
INTEGER 4 0 0 INTEGER ()) 0 '3') () 0 () () () 0 0)
6 'i_dt2' 'ideal_water' 'i_dt2' 1 ((PARAMETER UNKNOWN-INTENT
UNKNOWN-PROC UNKNOWN IMPLICIT-SAVE 0 0) (INTEGER 4 0 0 INTEGER ()) 0 0 ()
(CONSTANT (INTEGER 4 0 0 INTEGER ()) 0 '5') () 0 () () () 0 0)
7 'i_e' 'ideal_water' 'i_e' 1 ((PARAMETER UNKNOWN-INTENT UNKNOWN-PROC
UNKNOWN IMPLICIT-SAVE 0 0) (INTEGER 4 0 0 INTEGER ()) 0 0 () (CONSTANT (
INTEGER 4 0 0 INTEGER ()) 0 '2') () 0 () () () 0 0)
8 'i_p' 'ideal_water' 'i_p' 1 ((PARAMETER UNKNOWN-INTENT UNKNOWN-PROC
UNKNOWN IMPLICIT-SAVE 0 0) (INTEGER 4 0 0 INTEGER ()) 0 0 () (CONSTANT (
INTEGER 4 0 0 INTEGER ()) 0 '1') () 0 () () () 0 0)
9 'i_s' 'ideal_water' 'i_s' 1 ((PARAMETER UNKNOWN-INTENT UNKNOWN-PROC
UNKNOWN IMPLICIT-SAVE 0 0) (INTEGER 4 0 0 INTEGER ()) 0 0 () (CONSTANT (
INTEGER 4 0 0 INTEGER ()) 0 '3') () 0 () () () 0 0)
10 'i_val' 'ideal_water' 'i_val' 1 ((PARAMETER UNKNOWN-INTENT
UNKNOWN-PROC UNKNOWN IMPLICIT-SAVE 0 0) (INTEGER 4 0 0 INTEGER ()) 0 0 ()
(CONSTANT (INTEGER 4 0 0 INTEGER ()) 0 '1') () 0 () () () 0 0)
11 'ideal_water' 'ideal_water' 'ideal_water' 1 ((MODULE UNKNOWN-INTENT
UNKNOWN-PROC UNKNOWN UNKNOWN 0 0) (UNKNOWN 0 0 0 UNKNOWN ()) 0 0 () () 0
() () () 0 0)
12 'iw_get_free' 'ideal_water' 'iw_get_free' 1 ((PROCEDURE
UNKNOWN-INTENT MODULE-PROC DECL UNKNOWN 0 0 SUBROUTINE IMPLICIT_PURE) (
UNKNOWN 0 0 0 UNKNOWN ()) 13 0 (14 15 16 17 18 19 20 21 22 23 24 25 26)
() 0 () () () 0 0)
27 'iw_get_res' 'ideal_water' 'iw_get_res' 1 ((PROCEDURE UNKNOWN-INTENT
MODULE-PROC DECL UNKNOWN 0 0 SUBROUTINE IMPLICIT_PURE) (UNKNOWN 0 0 0
UNKNOWN ()) 28 0 (29 30 31 32 33 34 35 36) () 0 () () () 0 0)
37 'iw_get_rho' 'ideal_water' 'iw_get_rho' 1 ((PROCEDURE UNKNOWN-INTENT
MODULE-PROC DECL UNKNOWN 0 0 SUBROUTINE IMPLICIT_PURE) (UNKNOWN 0 0 0
UNKNOWN ()) 38 0 (39 40 41 42 43 44 45 46 47 48 49 50 51) () 0 () () ()
0 0)
52 'iw_get_t' 'ideal_water' 'iw_get_t' 1 ((PROCEDURE UNKNOWN-INTENT
MODULE-PROC DECL UNKNOWN 0 0 SUBROUTINE IMPLICIT_PURE) (UNKNOWN 0 0 0
UNKNOWN ()) 53 0 (54 55 56 57 58 59 60 61 62 63 64 65 66) () 0 () () ()
0 0)
67 'iw_get_val' 'ideal_water' 'iw_get_val' 1 ((PROCEDURE UNKNOWN-INTENT
MODULE-PROC DECL UNKNOWN 0 0 SUBROUTINE IMPLICIT_PURE ALWAYS_EXPLICIT) (
UNKNOWN 0 0 0 UNKNOWN ()) 68 0 (69 70 71 72 73 74) () 0 () () () 0 0)
14 'lnrho' '' 'lnrho' 13 ((VARIABLE IN UNKNOWN-PROC UNKNOWN UNKNOWN 0 0
DUMMY) (REAL 8 0 0 REAL ()) 0 0 () () 0 () () () 0 0)
15 'lnt' '' 'lnt' 13 ((VARIABLE IN UNKNOWN-PROC UNKNOWN UNKNOWN 0 0
DUMMY) (REAL 8 0 0 REAL ()) 0 0 () () 0 () () () 0 0)
16 'f_val' '' 'f_val' 13 ((VARIABLE OUT UNKNOWN-PROC UNKNOWN UNKNOWN 0 0
DUMMY) (REAL 8 0 0 REAL ()) 0 0 () () 0 () () () 0 0)
17 'df_drho' '' 'df_drho' 13 ((VARIABLE OUT UNKNOWN-PROC UNKNOWN UNKNOWN
0 0 DUMMY) (REAL 8 0 0 REAL ()) 0 0 () () 0 () () () 0 0)
18 'df_dt' '' 'df_dt' 13 ((VARIABLE OUT UNKNOWN-PROC UNKNOWN UNKNOWN 0 0
DUMMY) (REAL 8 0 0 REAL ()) 0 0 () () 0 () () () 0 0)
19 'd2f_drho2' '' 'd2f_drho2' 13 ((VARIABLE OUT UNKNOWN-PROC UNKNOWN
UNKNOWN 0 0 DUMMY) (REAL 8 0 0 REAL ()) 0 0 () () 0 () () () 0 0)
20 'd2f_dt2' '' 'd2f_dt2' 13 ((VARIABLE OUT UNKNOWN-PROC UNKNOWN UNKNOWN
0 0 DUMMY) (REAL 8 0 0 REAL ()) 0 0 () () 0 () () () 0 0)
21 'd2f_drhodt' '' 'd2f_drhodt' 13 ((VARIABLE OUT UNKNOWN-PROC UNKNOWN
UNKNOWN 0 0 DUMMY) (REAL 8 0 0 REAL ()) 0 0 () () 0 () () () 0 0)
22 'd3f_drho3' '' 'd3f_drho3' 13 ((VARIABLE OUT UNKNOWN-PROC UNKNOWN
UNKNOWN 0 0 DUMMY) (REAL 8 0 0 REAL ()) 0 0 () () 0 () () () 0 0)
23 'd3f_drho2dt' '' 'd3f_drho2dt' 13 ((VARIABLE OUT UNKNOWN-PROC UNKNOWN
UNKNOWN 0 0 DUMMY) (REAL 8 0 0 REAL ()) 0 0 () () 0 () () () 0 0)
24 'd3f_drhodt2' '' 'd3f_drhodt2' 13 ((VARIABLE OUT UNKNOWN-PROC UNKNOWN
UNKNOWN 0 0 DUMMY) (REAL 8 0 0 REAL ()) 0 0 () () 0 () () () 0 0)
25 'd3f_dt3' '' 'd3f_dt3' 13 ((VARIABLE OUT UNKNOWN-PROC UNKNOWN UNKNOWN
0 0 DUMMY) (REAL 8 0 0 REAL ()) 0 0 () () 0 () () () 0 0)
26 'd4f_drho2dt2' '' 'd4f_drho2dt2' 13 ((VARIABLE OUT UNKNOWN-PROC
UNKNOWN UNKNOWN 0 0 DUMMY) (REAL 8 0 0 REAL ()) 0 0 () () 0 () () () 0 0)
69 'rho' '' 'rho' 68 ((VARIABLE IN UNKNOWN-PROC UNKNOWN UNKNOWN 0 0
DUMMY) (REAL 8 0 0 REAL ()) 0 0 () () 0 () () () 0 0)
70 't' '' 't' 68 ((VARIABLE IN UNKNOWN-PROC UNKNOWN UNKNOWN 0 0 DUMMY) (
REAL 8 0 0 REAL ()) 0 0 () () 0 () () () 0 0)
71 'pvect' '' 'pvect' 68 ((VARIABLE OUT UNKNOWN-PROC UNKNOWN UNKNOWN 0 0
DIMENSION POINTER DUMMY) (REAL 8 0 0 REAL ()) 0 0 () (1 0 DEFERRED () ())
0 () () () 0 0)
72 'evect' '' 'evect' 68 ((VARIABLE OUT UNKNOWN-PROC UNKNOWN UNKNOWN 0 0
DIMENSION POINTER DUMMY) (REAL 8 0 0 REAL ()) 0 0 () (1 0 DEFERRED () ())
0 () () () 0 0)
73 'svect' '' 'svect' 68 ((VARIABLE OUT UNKNOWN-PROC UNKNOWN UNKNOWN 0 0
DIMENSION POINTER DUMMY) (REAL 8 0 0 REAL ()) 0 0 () (1 0 DEFERRED () ())
0 () () () 0 0)
74 'ierr' '' 'ierr' 68 ((VARIABLE OUT UNKNOWN-PROC UNKNOWN UNKNOWN 0 0
DUMMY) (INTEGER 4 0 0 INTEGER ()) 0 0 () () 0 () () () 0 0)
29 'rho' '' 'rho' 28 ((VARIABLE IN UNKNOWN-PROC UNKNOWN UNKNOWN 0 0
DUMMY) (REAL 8 0 0 REAL ()) 0 0 () () 0 () () () 0 0)
30 'lnrho' '' 'lnrho' 28 ((VARIABLE IN UNKNOWN-PROC UNKNOWN UNKNOWN 0 0
DUMMY) (REAL 8 0 0 REAL ()) 0 0 () () 0 () () () 0 0)
31 't' '' 't' 28 ((VARIABLE IN UNKNOWN-PROC UNKNOWN UNKNOWN 0 0 DUMMY) (
REAL 8 0 0 REAL ()) 0 0 () () 0 () () () 0 0)
32 'lnt' '' 'lnt' 28 ((VARIABLE IN UNKNOWN-PROC UNKNOWN UNKNOWN 0 0
DUMMY) (REAL 8 0 0 REAL ()) 0 0 () () 0 () () () 0 0)
33 'res' '' 'res' 28 ((VARIABLE OUT UNKNOWN-PROC UNKNOWN UNKNOWN 0 0
DIMENSION DUMMY) (REAL 8 0 0 REAL ()) 0 0 () (1 0 EXPLICIT (CONSTANT (
INTEGER 4 0 0 INTEGER ()) 0 '1') (CONSTANT (INTEGER 4 0 0 INTEGER ()) 0
'16')) 0 () () () 0 0)
34 'd_dlnrho_c_t' '' 'd_dlnrho_c_t' 28 ((VARIABLE OUT UNKNOWN-PROC
UNKNOWN UNKNOWN 0 0 DIMENSION DUMMY) (REAL 8 0 0 REAL ()) 0 0 () (1 0
EXPLICIT (CONSTANT (INTEGER 4 0 0 INTEGER ()) 0 '1') (CONSTANT (INTEGER
4 0 0 INTEGER ()) 0 '16')) 0 () () () 0 0)
35 'd_dlnt_c_rho' '' 'd_dlnt_c_rho' 28 ((VARIABLE OUT UNKNOWN-PROC
UNKNOWN UNKNOWN 0 0 DIMENSION DUMMY) (REAL 8 0 0 REAL ()) 0 0 () (1 0
EXPLICIT (CONSTANT (INTEGER 4 0 0 INTEGER ()) 0 '1') (CONSTANT (INTEGER
4 0 0 INTEGER ()) 0 '16')) 0 () () () 0 0)
36 'ierr' '' 'ierr' 28 ((VARIABLE OUT UNKNOWN-PROC UNKNOWN UNKNOWN 0 0
DUMMY) (INTEGER 4 0 0 INTEGER ()) 0 0 () () 0 () () () 0 0)
54 'logrho' '' 'logrho' 53 ((VARIABLE IN UNKNOWN-PROC UNKNOWN UNKNOWN 0
0 DUMMY) (REAL 8 0 0 REAL ()) 0 0 () () 0 () () () 0 0)
55 'which_other' '' 'which_other' 53 ((VARIABLE IN UNKNOWN-PROC UNKNOWN
UNKNOWN 0 0 DUMMY) (INTEGER 4 0 0 INTEGER ()) 0 0 () () 0 () () () 0 0)
56 'other_value' '' 'other_value' 53 ((VARIABLE IN UNKNOWN-PROC UNKNOWN
UNKNOWN 0 0 DUMMY) (REAL 8 0 0 REAL ()) 0 0 () () 0 () () () 0 0)
57 'logt_tol' '' 'logt_tol' 53 ((VARIABLE IN UNKNOWN-PROC UNKNOWN
UNKNOWN 0 0 DUMMY) (REAL 8 0 0 REAL ()) 0 0 () () 0 () () () 0 0)
58 'other_tol' '' 'other_tol' 53 ((VARIABLE IN UNKNOWN-PROC UNKNOWN
UNKNOWN 0 0 DUMMY) (REAL 8 0 0 REAL ()) 0 0 () () 0 () () () 0 0)
59 'max_iter' '' 'max_iter' 53 ((VARIABLE IN UNKNOWN-PROC UNKNOWN
UNKNOWN 0 0 DUMMY) (INTEGER 4 0 0 INTEGER ()) 0 0 () () 0 () () () 0 0)
60 'logt_guess' '' 'logt_guess' 53 ((VARIABLE IN UNKNOWN-PROC UNKNOWN
UNKNOWN 0 0 DUMMY) (REAL 8 0 0 REAL ()) 0 0 () () 0 () () () 0 0)
61 'logt_result' '' 'logt_result' 53 ((VARIABLE OUT UNKNOWN-PROC UNKNOWN
UNKNOWN 0 0 DUMMY) (REAL 8 0 0 REAL ()) 0 0 () () 0 () () () 0 0)
62 'res' '' 'res' 53 ((VARIABLE OUT UNKNOWN-PROC UNKNOWN UNKNOWN 0 0
DIMENSION DUMMY) (REAL 8 0 0 REAL ()) 0 0 () (1 0 EXPLICIT (CONSTANT (
INTEGER 4 0 0 INTEGER ()) 0 '1') (CONSTANT (INTEGER 4 0 0 INTEGER ()) 0
'16')) 0 () () () 0 0)
63 'd_dlnrho_c_t' '' 'd_dlnrho_c_t' 53 ((VARIABLE OUT UNKNOWN-PROC
UNKNOWN UNKNOWN 0 0 DIMENSION DUMMY) (REAL 8 0 0 REAL ()) 0 0 () (1 0
EXPLICIT (CONSTANT (INTEGER 4 0 0 INTEGER ()) 0 '1') (CONSTANT (INTEGER
4 0 0 INTEGER ()) 0 '16')) 0 () () () 0 0)
64 'd_dlnt_c_rho' '' 'd_dlnt_c_rho' 53 ((VARIABLE OUT UNKNOWN-PROC
UNKNOWN UNKNOWN 0 0 DIMENSION DUMMY) (REAL 8 0 0 REAL ()) 0 0 () (1 0
EXPLICIT (CONSTANT (INTEGER 4 0 0 INTEGER ()) 0 '1') (CONSTANT (INTEGER
4 0 0 INTEGER ()) 0 '16')) 0 () () () 0 0)
65 'eos_calls' '' 'eos_calls' 53 ((VARIABLE OUT UNKNOWN-PROC UNKNOWN
UNKNOWN 0 0 DUMMY) (INTEGER 4 0 0 INTEGER ()) 0 0 () () 0 () () () 0 0)
66 'ierr' '' 'ierr' 53 ((VARIABLE OUT UNKNOWN-PROC UNKNOWN UNKNOWN 0 0
DUMMY) (INTEGER 4 0 0 INTEGER ()) 0 0 () () 0 () () () 0 0)
39 'logt' '' 'logt' 38 ((VARIABLE IN UNKNOWN-PROC UNKNOWN UNKNOWN 0 0
DUMMY) (REAL 8 0 0 REAL ()) 0 0 () () 0 () () () 0 0)
40 'which_other' '' 'which_other' 38 ((VARIABLE IN UNKNOWN-PROC UNKNOWN
UNKNOWN 0 0 DUMMY) (INTEGER 4 0 0 INTEGER ()) 0 0 () () 0 () () () 0 0)
41 'other_value' '' 'other_value' 38 ((VARIABLE IN UNKNOWN-PROC UNKNOWN
UNKNOWN 0 0 DUMMY) (REAL 8 0 0 REAL ()) 0 0 () () 0 () () () 0 0)
42 'logrho_tol' '' 'logrho_tol' 38 ((VARIABLE IN UNKNOWN-PROC UNKNOWN
UNKNOWN 0 0 DUMMY) (REAL 8 0 0 REAL ()) 0 0 () () 0 () () () 0 0)
43 'other_tol' '' 'other_tol' 38 ((VARIABLE IN UNKNOWN-PROC UNKNOWN
UNKNOWN 0 0 DUMMY) (REAL 8 0 0 REAL ()) 0 0 () () 0 () () () 0 0)
44 'max_iter' '' 'max_iter' 38 ((VARIABLE IN UNKNOWN-PROC UNKNOWN
UNKNOWN 0 0 DUMMY) (INTEGER 4 0 0 INTEGER ()) 0 0 () () 0 () () () 0 0)
45 'logrho_guess' '' 'logrho_guess' 38 ((VARIABLE IN UNKNOWN-PROC
UNKNOWN UNKNOWN 0 0 DUMMY) (REAL 8 0 0 REAL ()) 0 0 () () 0 () () () 0 0)
46 'logrho_result' '' 'logrho_result' 38 ((VARIABLE OUT UNKNOWN-PROC
UNKNOWN UNKNOWN 0 0 DUMMY) (REAL 8 0 0 REAL ()) 0 0 () () 0 () () () 0 0)
47 'res' '' 'res' 38 ((VARIABLE OUT UNKNOWN-PROC UNKNOWN UNKNOWN 0 0
DIMENSION DUMMY) (REAL 8 0 0 REAL ()) 0 0 () (1 0 EXPLICIT (CONSTANT (
INTEGER 4 0 0 INTEGER ()) 0 '1') (CONSTANT (INTEGER 4 0 0 INTEGER ()) 0
'16')) 0 () () () 0 0)
48 'd_dlnrho_c_t' '' 'd_dlnrho_c_t' 38 ((VARIABLE OUT UNKNOWN-PROC
UNKNOWN UNKNOWN 0 0 DIMENSION DUMMY) (REAL 8 0 0 REAL ()) 0 0 () (1 0
EXPLICIT (CONSTANT (INTEGER 4 0 0 INTEGER ()) 0 '1') (CONSTANT (INTEGER
4 0 0 INTEGER ()) 0 '16')) 0 () () () 0 0)
49 'd_dlnt_c_rho' '' 'd_dlnt_c_rho' 38 ((VARIABLE OUT UNKNOWN-PROC
UNKNOWN UNKNOWN 0 0 DIMENSION DUMMY) (REAL 8 0 0 REAL ()) 0 0 () (1 0
EXPLICIT (CONSTANT (INTEGER 4 0 0 INTEGER ()) 0 '1') (CONSTANT (INTEGER
4 0 0 INTEGER ()) 0 '16')) 0 () () () 0 0)
50 'eos_calls' '' 'eos_calls' 38 ((VARIABLE OUT UNKNOWN-PROC UNKNOWN
UNKNOWN 0 0 DUMMY) (INTEGER 4 0 0 INTEGER ()) 0 0 () () 0 () () () 0 0)
51 'ierr' '' 'ierr' 38 ((VARIABLE OUT UNKNOWN-PROC UNKNOWN UNKNOWN 0 0
DUMMY) (INTEGER 4 0 0 INTEGER ()) 0 0 () () 0 () () () 0 0)
)

('i_drho' 0 2 'i_drho2' 0 3 'i_drhodt' 0 4 'i_dt' 0 5 'i_dt2' 0 6 'i_e'
0 7 'i_p' 0 8 'i_s' 0 9 'i_val' 0 10 'ideal_water' 0 11 'iw_get_free' 0
12 'iw_get_res' 0 27 'iw_get_rho' 0 37 'iw_get_t' 0 52 'iw_get_val' 0 67)
