GFORTRAN module version '6' created from ../public/watereos_lib.f on Mon Apr 23 22:31:07 2012
MD5:7b6ca6550e9003a8fe84b323b67492ef -- If you edit this, you'll get what you deserve.

(() () () () () () () () () () () () () () () () () () () () () () ()
() () () ())

()

()

()

()

()

(2 'exp' '(intrinsic)' 'exp' 1 ((PROCEDURE UNKNOWN-INTENT UNKNOWN-PROC
UNKNOWN UNKNOWN 0 0 FUNCTION) (UNKNOWN 0 0 0 UNKNOWN ()) 0 0 () () 2 ()
() () 0 0)
3 'i_dlnp' 'watereos_def' 'i_dlnp' 1 ((PARAMETER UNKNOWN-INTENT
UNKNOWN-PROC UNKNOWN IMPLICIT-SAVE 0 0) (INTEGER 4 0 0 INTEGER ()) 0 0 ()
(CONSTANT (INTEGER 4 0 0 INTEGER ()) 0 '2') () 0 () () () 0 0)
4 'i_dlnp2' 'watereos_def' 'i_dlnp2' 1 ((PARAMETER UNKNOWN-INTENT
UNKNOWN-PROC UNKNOWN IMPLICIT-SAVE 0 0) (INTEGER 4 0 0 INTEGER ()) 0 0 ()
(CONSTANT (INTEGER 4 0 0 INTEGER ()) 0 '4') () 0 () () () 0 0)
5 'i_dlnpdlnt' 'watereos_def' 'i_dlnpdlnt' 1 ((PARAMETER UNKNOWN-INTENT
UNKNOWN-PROC UNKNOWN IMPLICIT-SAVE 0 0) (INTEGER 4 0 0 INTEGER ()) 0 0 ()
(CONSTANT (INTEGER 4 0 0 INTEGER ()) 0 '6') () 0 () () () 0 0)
6 'i_dlnrho' 'watereos_def' 'i_dlnrho' 1 ((PARAMETER UNKNOWN-INTENT
UNKNOWN-PROC UNKNOWN IMPLICIT-SAVE 0 0) (INTEGER 4 0 0 INTEGER ()) 0 0 ()
(CONSTANT (INTEGER 4 0 0 INTEGER ()) 0 '2') () 0 () () () 0 0)
7 'i_dlnrho2' 'watereos_def' 'i_dlnrho2' 1 ((PARAMETER UNKNOWN-INTENT
UNKNOWN-PROC UNKNOWN IMPLICIT-SAVE 0 0) (INTEGER 4 0 0 INTEGER ()) 0 0 ()
(CONSTANT (INTEGER 4 0 0 INTEGER ()) 0 '4') () 0 () () () 0 0)
8 'i_dlnrhodlnt' 'watereos_def' 'i_dlnrhodlnt' 1 ((PARAMETER
UNKNOWN-INTENT UNKNOWN-PROC UNKNOWN IMPLICIT-SAVE 0 0) (INTEGER 4 0 0
INTEGER ()) 0 0 () (CONSTANT (INTEGER 4 0 0 INTEGER ()) 0 '6') () 0 () ()
() 0 0)
9 'i_dlnt' 'watereos_def' 'i_dlnt' 1 ((PARAMETER UNKNOWN-INTENT
UNKNOWN-PROC UNKNOWN IMPLICIT-SAVE 0 0) (INTEGER 4 0 0 INTEGER ()) 0 0 ()
(CONSTANT (INTEGER 4 0 0 INTEGER ()) 0 '3') () 0 () () () 0 0)
10 'i_dlnt2' 'watereos_def' 'i_dlnt2' 1 ((PARAMETER UNKNOWN-INTENT
UNKNOWN-PROC UNKNOWN IMPLICIT-SAVE 0 0) (INTEGER 4 0 0 INTEGER ()) 0 0 ()
(CONSTANT (INTEGER 4 0 0 INTEGER ()) 0 '5') () 0 () () () 0 0)
11 'i_dp' 'watereos_def' 'i_dp' 1 ((PARAMETER UNKNOWN-INTENT
UNKNOWN-PROC UNKNOWN IMPLICIT-SAVE 0 0) (INTEGER 4 0 0 INTEGER ()) 0 0 ()
(CONSTANT (INTEGER 4 0 0 INTEGER ()) 0 '2') () 0 () () () 0 0)
12 'i_dp2' 'watereos_def' 'i_dp2' 1 ((PARAMETER UNKNOWN-INTENT
UNKNOWN-PROC UNKNOWN IMPLICIT-SAVE 0 0) (INTEGER 4 0 0 INTEGER ()) 0 0 ()
(CONSTANT (INTEGER 4 0 0 INTEGER ()) 0 '4') () 0 () () () 0 0)
13 'i_dpdt' 'watereos_def' 'i_dpdt' 1 ((PARAMETER UNKNOWN-INTENT
UNKNOWN-PROC UNKNOWN IMPLICIT-SAVE 0 0) (INTEGER 4 0 0 INTEGER ()) 0 0 ()
(CONSTANT (INTEGER 4 0 0 INTEGER ()) 0 '6') () 0 () () () 0 0)
14 'i_drho' 'watereos_def' 'i_drho' 1 ((PARAMETER UNKNOWN-INTENT
UNKNOWN-PROC UNKNOWN IMPLICIT-SAVE 0 0) (INTEGER 4 0 0 INTEGER ()) 0 0 ()
(CONSTANT (INTEGER 4 0 0 INTEGER ()) 0 '2') () 0 () () () 0 0)
15 'i_drho2' 'watereos_def' 'i_drho2' 1 ((PARAMETER UNKNOWN-INTENT
UNKNOWN-PROC UNKNOWN IMPLICIT-SAVE 0 0) (INTEGER 4 0 0 INTEGER ()) 0 0 ()
(CONSTANT (INTEGER 4 0 0 INTEGER ()) 0 '4') () 0 () () () 0 0)
16 'i_drhodt' 'watereos_def' 'i_drhodt' 1 ((PARAMETER UNKNOWN-INTENT
UNKNOWN-PROC UNKNOWN IMPLICIT-SAVE 0 0) (INTEGER 4 0 0 INTEGER ()) 0 0 ()
(CONSTANT (INTEGER 4 0 0 INTEGER ()) 0 '6') () 0 () () () 0 0)
17 'i_dt' 'watereos_def' 'i_dt' 1 ((PARAMETER UNKNOWN-INTENT
UNKNOWN-PROC UNKNOWN IMPLICIT-SAVE 0 0) (INTEGER 4 0 0 INTEGER ()) 0 0 ()
(CONSTANT (INTEGER 4 0 0 INTEGER ()) 0 '3') () 0 () () () 0 0)
18 'i_dt2' 'watereos_def' 'i_dt2' 1 ((PARAMETER UNKNOWN-INTENT
UNKNOWN-PROC UNKNOWN IMPLICIT-SAVE 0 0) (INTEGER 4 0 0 INTEGER ()) 0 0 ()
(CONSTANT (INTEGER 4 0 0 INTEGER ()) 0 '5') () 0 () () () 0 0)
19 'i_dx' 'watereos_def' 'i_dx' 1 ((PARAMETER UNKNOWN-INTENT
UNKNOWN-PROC UNKNOWN IMPLICIT-SAVE 0 0) (INTEGER 4 0 0 INTEGER ()) 0 0 ()
(CONSTANT (INTEGER 4 0 0 INTEGER ()) 0 '2') () 0 () () () 0 0)
20 'i_dx2' 'watereos_def' 'i_dx2' 1 ((PARAMETER UNKNOWN-INTENT
UNKNOWN-PROC UNKNOWN IMPLICIT-SAVE 0 0) (INTEGER 4 0 0 INTEGER ()) 0 0 ()
(CONSTANT (INTEGER 4 0 0 INTEGER ()) 0 '4') () 0 () () () 0 0)
21 'i_dxdy' 'watereos_def' 'i_dxdy' 1 ((PARAMETER UNKNOWN-INTENT
UNKNOWN-PROC UNKNOWN IMPLICIT-SAVE 0 0) (INTEGER 4 0 0 INTEGER ()) 0 0 ()
(CONSTANT (INTEGER 4 0 0 INTEGER ()) 0 '6') () 0 () () () 0 0)
22 'i_dy' 'watereos_def' 'i_dy' 1 ((PARAMETER UNKNOWN-INTENT
UNKNOWN-PROC UNKNOWN IMPLICIT-SAVE 0 0) (INTEGER 4 0 0 INTEGER ()) 0 0 ()
(CONSTANT (INTEGER 4 0 0 INTEGER ()) 0 '3') () 0 () () () 0 0)
23 'i_dy2' 'watereos_def' 'i_dy2' 1 ((PARAMETER UNKNOWN-INTENT
UNKNOWN-PROC UNKNOWN IMPLICIT-SAVE 0 0) (INTEGER 4 0 0 INTEGER ()) 0 0 ()
(CONSTANT (INTEGER 4 0 0 INTEGER ()) 0 '5') () 0 () () () 0 0)
24 'i_dz' 'watereos_def' 'i_dz' 1 ((PARAMETER UNKNOWN-INTENT
UNKNOWN-PROC UNKNOWN IMPLICIT-SAVE 0 0) (INTEGER 4 0 0 INTEGER ()) 0 0 ()
(CONSTANT (INTEGER 4 0 0 INTEGER ()) 0 '2') () 0 () () () 0 0)
25 'i_dz2' 'watereos_def' 'i_dz2' 1 ((PARAMETER UNKNOWN-INTENT
UNKNOWN-PROC UNKNOWN IMPLICIT-SAVE 0 0) (INTEGER 4 0 0 INTEGER ()) 0 0 ()
(CONSTANT (INTEGER 4 0 0 INTEGER ()) 0 '4') () 0 () () () 0 0)
26 'i_dzdy' 'watereos_def' 'i_dzdy' 1 ((PARAMETER UNKNOWN-INTENT
UNKNOWN-PROC UNKNOWN IMPLICIT-SAVE 0 0) (INTEGER 4 0 0 INTEGER ()) 0 0 ()
(CONSTANT (INTEGER 4 0 0 INTEGER ()) 0 '6') () 0 () () () 0 0)
27 'i_e' 'watereos_def' 'i_e' 1 ((PARAMETER UNKNOWN-INTENT UNKNOWN-PROC
UNKNOWN IMPLICIT-SAVE 0 0) (INTEGER 4 0 0 INTEGER ()) 0 0 () (CONSTANT (
INTEGER 4 0 0 INTEGER ()) 0 '2') () 0 () () () 0 0)
28 'i_p' 'watereos_def' 'i_p' 1 ((PARAMETER UNKNOWN-INTENT UNKNOWN-PROC
UNKNOWN IMPLICIT-SAVE 0 0) (INTEGER 4 0 0 INTEGER ()) 0 0 () (CONSTANT (
INTEGER 4 0 0 INTEGER ()) 0 '1') () 0 () () () 0 0)
29 'i_s' 'watereos_def' 'i_s' 1 ((PARAMETER UNKNOWN-INTENT UNKNOWN-PROC
UNKNOWN IMPLICIT-SAVE 0 0) (INTEGER 4 0 0 INTEGER ()) 0 0 () (CONSTANT (
INTEGER 4 0 0 INTEGER ()) 0 '3') () 0 () () () 0 0)
30 'i_val' 'watereos_def' 'i_val' 1 ((PARAMETER UNKNOWN-INTENT
UNKNOWN-PROC UNKNOWN IMPLICIT-SAVE 0 0) (INTEGER 4 0 0 INTEGER ()) 0 0 ()
(CONSTANT (INTEGER 4 0 0 INTEGER ()) 0 '1') () 0 () () () 0 0)
31 'log10' '(intrinsic)' 'log10' 1 ((PROCEDURE UNKNOWN-INTENT
UNKNOWN-PROC UNKNOWN UNKNOWN 0 0 FUNCTION) (UNKNOWN 0 0 0 UNKNOWN ()) 0
0 () () 31 () () () 0 0)
32 'logexp' 'watereos_def' 'logexp' 1 ((PARAMETER UNKNOWN-INTENT
UNKNOWN-PROC UNKNOWN IMPLICIT-SAVE 0 0) (REAL 8 0 0 REAL ()) 0 0 () (
CONSTANT (REAL 8 0 0 REAL ()) 0 '0.457cb3b4e13ca4@1') () 0 () () () 0 0)
33 'mixdbg' 'watereos_def' 'mixdbg' 1 ((PARAMETER UNKNOWN-INTENT
UNKNOWN-PROC UNKNOWN IMPLICIT-SAVE 0 0) (LOGICAL 4 0 0 LOGICAL ()) 0 0 ()
(CONSTANT (LOGICAL 4 0 0 LOGICAL ()) 0 0) () 0 () () () 0 0)
34 'num_derivs' 'watereos_def' 'num_derivs' 1 ((PARAMETER UNKNOWN-INTENT
UNKNOWN-PROC UNKNOWN IMPLICIT-SAVE 0 0) (INTEGER 4 0 0 INTEGER ()) 0 0 ()
(CONSTANT (INTEGER 4 0 0 INTEGER ()) 0 '6') () 0 () () () 0 0)
35 'water_eos_get' 'watereos_lib' 'water_eos_get' 1 ((PROCEDURE
UNKNOWN-INTENT MODULE-PROC DECL UNKNOWN 0 0 SUBROUTINE IMPLICIT_PURE
ALWAYS_EXPLICIT) (UNKNOWN 0 0 0 UNKNOWN ()) 36 0 (37 38 39 40 41 42 43
44 45 46 47 48 49 50 51 52 53 54) () 0 () () () 0 0)
55 'water_eos_get_rho' 'watereos_lib' 'water_eos_get_rho' 1 ((PROCEDURE
UNKNOWN-INTENT MODULE-PROC DECL UNKNOWN 0 0 SUBROUTINE IMPLICIT_PURE
ALWAYS_EXPLICIT) (UNKNOWN 0 0 0 UNKNOWN ()) 56 0 (57 58 59 60 61 62 63
64 65 66 67 68 69 70 71 72 73 74 75 76 77 78 79 80 81 82) () 0 () () ()
0 0)
83 'water_eos_get_t' 'watereos_lib' 'water_eos_get_t' 1 ((PROCEDURE
UNKNOWN-INTENT MODULE-PROC DECL UNKNOWN 0 0 SUBROUTINE IMPLICIT_PURE
ALWAYS_EXPLICIT) (UNKNOWN 0 0 0 UNKNOWN ()) 84 0 (85 86 87 88 89 90 91
92 93 94 95 96 97 98 99 100 101 102 103 104 105 106 107 108 109 110) ()
0 () () () 0 0)
111 'watereos_def' 'watereos_def' 'watereos_def' 1 ((MODULE
UNKNOWN-INTENT UNKNOWN-PROC UNKNOWN UNKNOWN 0 0) (UNKNOWN 0 0 0 UNKNOWN
()) 0 0 () () 0 () () () 0 0)
112 'watereos_lib' 'watereos_lib' 'watereos_lib' 1 ((MODULE
UNKNOWN-INTENT UNKNOWN-PROC UNKNOWN UNKNOWN 0 0) (UNKNOWN 0 0 0 UNKNOWN
()) 0 0 () () 0 () () () 0 0)
37 'id' '' 'id' 36 ((VARIABLE IN UNKNOWN-PROC UNKNOWN UNKNOWN 0 0 DUMMY)
(INTEGER 4 0 0 INTEGER ()) 0 0 () () 0 () () () 0 0)
38 'handle' '' 'handle' 36 ((VARIABLE IN UNKNOWN-PROC UNKNOWN UNKNOWN 0
0 DUMMY) (INTEGER 4 0 0 INTEGER ()) 0 0 () () 0 () () () 0 0)
39 'z' '' 'z' 36 ((VARIABLE IN UNKNOWN-PROC UNKNOWN UNKNOWN 0 0 DUMMY) (
REAL 8 0 0 REAL ()) 0 0 () () 0 () () () 0 0)
40 'x' '' 'x' 36 ((VARIABLE IN UNKNOWN-PROC UNKNOWN UNKNOWN 0 0 DUMMY) (
REAL 8 0 0 REAL ()) 0 0 () () 0 () () () 0 0)
41 'abar' '' 'abar' 36 ((VARIABLE IN UNKNOWN-PROC UNKNOWN UNKNOWN 0 0
DUMMY) (REAL 8 0 0 REAL ()) 0 0 () () 0 () () () 0 0)
42 'zbar' '' 'zbar' 36 ((VARIABLE IN UNKNOWN-PROC UNKNOWN UNKNOWN 0 0
DUMMY) (REAL 8 0 0 REAL ()) 0 0 () () 0 () () () 0 0)
43 'species' '' 'species' 36 ((VARIABLE IN UNKNOWN-PROC UNKNOWN UNKNOWN
0 0 DUMMY) (INTEGER 4 0 0 INTEGER ()) 0 0 () () 0 () () () 0 0)
44 'chem_id' '' 'chem_id' 36 ((VARIABLE UNKNOWN-INTENT UNKNOWN-PROC
UNKNOWN UNKNOWN 0 0 DIMENSION POINTER DUMMY) (INTEGER 4 0 0 INTEGER ())
0 0 () (1 0 DEFERRED () ()) 0 () () () 0 0)
45 'net_iso' '' 'net_iso' 36 ((VARIABLE UNKNOWN-INTENT UNKNOWN-PROC
UNKNOWN UNKNOWN 0 0 DIMENSION POINTER DUMMY) (INTEGER 4 0 0 INTEGER ())
0 0 () (1 0 DEFERRED () ()) 0 () () () 0 0)
46 'xa' '' 'xa' 36 ((VARIABLE IN UNKNOWN-PROC UNKNOWN UNKNOWN 0 0
DIMENSION DUMMY) (REAL 8 0 0 REAL ()) 0 0 () (1 0 ASSUMED_SHAPE (
CONSTANT (INTEGER 4 0 0 INTEGER ()) 0 '1') ()) 0 () () () 0 0)
47 'rho' '' 'rho' 36 ((VARIABLE IN UNKNOWN-PROC UNKNOWN UNKNOWN 0 0
DUMMY) (REAL 8 0 0 REAL ()) 0 0 () () 0 () () () 0 0)
48 'log10rho' '' 'log10rho' 36 ((VARIABLE IN UNKNOWN-PROC UNKNOWN
UNKNOWN 0 0 DUMMY) (REAL 8 0 0 REAL ()) 0 0 () () 0 () () () 0 0)
49 't' '' 't' 36 ((VARIABLE IN UNKNOWN-PROC UNKNOWN UNKNOWN 0 0 DUMMY) (
REAL 8 0 0 REAL ()) 0 0 () () 0 () () () 0 0)
50 'log10t' '' 'log10t' 36 ((VARIABLE IN UNKNOWN-PROC UNKNOWN UNKNOWN 0
0 DUMMY) (REAL 8 0 0 REAL ()) 0 0 () () 0 () () () 0 0)
51 'res' '' 'res' 36 ((VARIABLE OUT UNKNOWN-PROC UNKNOWN UNKNOWN 0 0
DIMENSION DUMMY) (REAL 8 0 0 REAL ()) 0 0 () (1 0 EXPLICIT (CONSTANT (
INTEGER 4 0 0 INTEGER ()) 0 '1') (CONSTANT (INTEGER 4 0 0 INTEGER ()) 0
'16')) 0 () () () 0 0)
52 'd_dlnrho_c_t' '' 'd_dlnrho_c_t' 36 ((VARIABLE OUT UNKNOWN-PROC
UNKNOWN UNKNOWN 0 0 DIMENSION DUMMY) (REAL 8 0 0 REAL ()) 0 0 () (1 0
EXPLICIT (CONSTANT (INTEGER 4 0 0 INTEGER ()) 0 '1') (CONSTANT (INTEGER
4 0 0 INTEGER ()) 0 '16')) 0 () () () 0 0)
53 'd_dlnt_c_rho' '' 'd_dlnt_c_rho' 36 ((VARIABLE OUT UNKNOWN-PROC
UNKNOWN UNKNOWN 0 0 DIMENSION DUMMY) (REAL 8 0 0 REAL ()) 0 0 () (1 0
EXPLICIT (CONSTANT (INTEGER 4 0 0 INTEGER ()) 0 '1') (CONSTANT (INTEGER
4 0 0 INTEGER ()) 0 '16')) 0 () () () 0 0)
54 'ierr' '' 'ierr' 36 ((VARIABLE OUT UNKNOWN-PROC UNKNOWN UNKNOWN 0 0
DUMMY) (INTEGER 4 0 0 INTEGER ()) 0 0 () () 0 () () () 0 0)
87 'x' '' 'x' 84 ((VARIABLE IN UNKNOWN-PROC UNKNOWN UNKNOWN 0 0 DUMMY) (
REAL 8 0 0 REAL ()) 0 0 () () 0 () () () 0 0)
88 'abar' '' 'abar' 84 ((VARIABLE IN UNKNOWN-PROC UNKNOWN UNKNOWN 0 0
DUMMY) (REAL 8 0 0 REAL ()) 0 0 () () 0 () () () 0 0)
89 'zbar' '' 'zbar' 84 ((VARIABLE IN UNKNOWN-PROC UNKNOWN UNKNOWN 0 0
DUMMY) (REAL 8 0 0 REAL ()) 0 0 () () 0 () () () 0 0)
85 'handle' '' 'handle' 84 ((VARIABLE IN UNKNOWN-PROC UNKNOWN UNKNOWN 0
0 DUMMY) (INTEGER 4 0 0 INTEGER ()) 0 0 () () 0 () () () 0 0)
86 'z' '' 'z' 84 ((VARIABLE IN UNKNOWN-PROC UNKNOWN UNKNOWN 0 0 DUMMY) (
REAL 8 0 0 REAL ()) 0 0 () () 0 () () () 0 0)
90 'species' '' 'species' 84 ((VARIABLE IN UNKNOWN-PROC UNKNOWN UNKNOWN
0 0 DUMMY) (INTEGER 4 0 0 INTEGER ()) 0 0 () () 0 () () () 0 0)
91 'chem_id' '' 'chem_id' 84 ((VARIABLE UNKNOWN-INTENT UNKNOWN-PROC
UNKNOWN UNKNOWN 0 0 DIMENSION POINTER DUMMY) (INTEGER 4 0 0 INTEGER ())
0 0 () (1 0 DEFERRED () ()) 0 () () () 0 0)
92 'net_iso' '' 'net_iso' 84 ((VARIABLE UNKNOWN-INTENT UNKNOWN-PROC
UNKNOWN UNKNOWN 0 0 DIMENSION POINTER DUMMY) (INTEGER 4 0 0 INTEGER ())
0 0 () (1 0 DEFERRED () ()) 0 () () () 0 0)
93 'xa' '' 'xa' 84 ((VARIABLE IN UNKNOWN-PROC UNKNOWN UNKNOWN 0 0
DIMENSION DUMMY) (REAL 8 0 0 REAL ()) 0 0 () (1 0 ASSUMED_SHAPE (
CONSTANT (INTEGER 4 0 0 INTEGER ()) 0 '1') ()) 0 () () () 0 0)
94 'logrho' '' 'logrho' 84 ((VARIABLE IN UNKNOWN-PROC UNKNOWN UNKNOWN 0
0 DUMMY) (REAL 8 0 0 REAL ()) 0 0 () () 0 () () () 0 0)
95 'which_other' '' 'which_other' 84 ((VARIABLE IN UNKNOWN-PROC UNKNOWN
UNKNOWN 0 0 DUMMY) (INTEGER 4 0 0 INTEGER ()) 0 0 () () 0 () () () 0 0)
96 'other_value' '' 'other_value' 84 ((VARIABLE IN UNKNOWN-PROC UNKNOWN
UNKNOWN 0 0 DUMMY) (REAL 8 0 0 REAL ()) 0 0 () () 0 () () () 0 0)
97 'logt_tol' '' 'logt_tol' 84 ((VARIABLE IN UNKNOWN-PROC UNKNOWN
UNKNOWN 0 0 DUMMY) (REAL 8 0 0 REAL ()) 0 0 () () 0 () () () 0 0)
98 'other_tol' '' 'other_tol' 84 ((VARIABLE IN UNKNOWN-PROC UNKNOWN
UNKNOWN 0 0 DUMMY) (REAL 8 0 0 REAL ()) 0 0 () () 0 () () () 0 0)
99 'max_iter' '' 'max_iter' 84 ((VARIABLE IN UNKNOWN-PROC UNKNOWN
UNKNOWN 0 0 DUMMY) (INTEGER 4 0 0 INTEGER ()) 0 0 () () 0 () () () 0 0)
100 'logt_guess' '' 'logt_guess' 84 ((VARIABLE IN UNKNOWN-PROC UNKNOWN
UNKNOWN 0 0 DUMMY) (REAL 8 0 0 REAL ()) 0 0 () () 0 () () () 0 0)
101 'logt_bnd1' '' 'logt_bnd1' 84 ((VARIABLE IN UNKNOWN-PROC UNKNOWN
UNKNOWN 0 0 DUMMY) (REAL 8 0 0 REAL ()) 0 0 () () 0 () () () 0 0)
102 'logt_bnd2' '' 'logt_bnd2' 84 ((VARIABLE IN UNKNOWN-PROC UNKNOWN
UNKNOWN 0 0 DUMMY) (REAL 8 0 0 REAL ()) 0 0 () () 0 () () () 0 0)
103 'other_at_bnd1' '' 'other_at_bnd1' 84 ((VARIABLE IN UNKNOWN-PROC
UNKNOWN UNKNOWN 0 0 DUMMY) (REAL 8 0 0 REAL ()) 0 0 () () 0 () () () 0 0)
104 'other_at_bnd2' '' 'other_at_bnd2' 84 ((VARIABLE IN UNKNOWN-PROC
UNKNOWN UNKNOWN 0 0 DUMMY) (REAL 8 0 0 REAL ()) 0 0 () () 0 () () () 0 0)
105 'logt_result' '' 'logt_result' 84 ((VARIABLE OUT UNKNOWN-PROC
UNKNOWN UNKNOWN 0 0 DUMMY) (REAL 8 0 0 REAL ()) 0 0 () () 0 () () () 0 0)
106 'res' '' 'res' 84 ((VARIABLE OUT UNKNOWN-PROC UNKNOWN UNKNOWN 0 0
DIMENSION DUMMY) (REAL 8 0 0 REAL ()) 0 0 () (1 0 EXPLICIT (CONSTANT (
INTEGER 4 0 0 INTEGER ()) 0 '1') (CONSTANT (INTEGER 4 0 0 INTEGER ()) 0
'16')) 0 () () () 0 0)
107 'd_dlnrho_c_t' '' 'd_dlnrho_c_t' 84 ((VARIABLE OUT UNKNOWN-PROC
UNKNOWN UNKNOWN 0 0 DIMENSION DUMMY) (REAL 8 0 0 REAL ()) 0 0 () (1 0
EXPLICIT (CONSTANT (INTEGER 4 0 0 INTEGER ()) 0 '1') (CONSTANT (INTEGER
4 0 0 INTEGER ()) 0 '16')) 0 () () () 0 0)
108 'd_dlnt_c_rho' '' 'd_dlnt_c_rho' 84 ((VARIABLE OUT UNKNOWN-PROC
UNKNOWN UNKNOWN 0 0 DIMENSION DUMMY) (REAL 8 0 0 REAL ()) 0 0 () (1 0
EXPLICIT (CONSTANT (INTEGER 4 0 0 INTEGER ()) 0 '1') (CONSTANT (INTEGER
4 0 0 INTEGER ()) 0 '16')) 0 () () () 0 0)
109 'eos_calls' '' 'eos_calls' 84 ((VARIABLE OUT UNKNOWN-PROC UNKNOWN
UNKNOWN 0 0 DUMMY) (INTEGER 4 0 0 INTEGER ()) 0 0 () () 0 () () () 0 0)
110 'ierr' '' 'ierr' 84 ((VARIABLE OUT UNKNOWN-PROC UNKNOWN UNKNOWN 0 0
DUMMY) (INTEGER 4 0 0 INTEGER ()) 0 0 () () 0 () () () 0 0)
57 'handle' '' 'handle' 56 ((VARIABLE IN UNKNOWN-PROC UNKNOWN UNKNOWN 0
0 DUMMY) (INTEGER 4 0 0 INTEGER ()) 0 0 () () 0 () () () 0 0)
58 'z' '' 'z' 56 ((VARIABLE IN UNKNOWN-PROC UNKNOWN UNKNOWN 0 0 DUMMY) (
REAL 8 0 0 REAL ()) 0 0 () () 0 () () () 0 0)
59 'x' '' 'x' 56 ((VARIABLE IN UNKNOWN-PROC UNKNOWN UNKNOWN 0 0 DUMMY) (
REAL 8 0 0 REAL ()) 0 0 () () 0 () () () 0 0)
60 'abar' '' 'abar' 56 ((VARIABLE IN UNKNOWN-PROC UNKNOWN UNKNOWN 0 0
DUMMY) (REAL 8 0 0 REAL ()) 0 0 () () 0 () () () 0 0)
61 'zbar' '' 'zbar' 56 ((VARIABLE IN UNKNOWN-PROC UNKNOWN UNKNOWN 0 0
DUMMY) (REAL 8 0 0 REAL ()) 0 0 () () 0 () () () 0 0)
62 'species' '' 'species' 56 ((VARIABLE IN UNKNOWN-PROC UNKNOWN UNKNOWN
0 0 DUMMY) (INTEGER 4 0 0 INTEGER ()) 0 0 () () 0 () () () 0 0)
63 'chem_id' '' 'chem_id' 56 ((VARIABLE UNKNOWN-INTENT UNKNOWN-PROC
UNKNOWN UNKNOWN 0 0 DIMENSION POINTER DUMMY) (INTEGER 4 0 0 INTEGER ())
0 0 () (1 0 DEFERRED () ()) 0 () () () 0 0)
64 'net_iso' '' 'net_iso' 56 ((VARIABLE UNKNOWN-INTENT UNKNOWN-PROC
UNKNOWN UNKNOWN 0 0 DIMENSION POINTER DUMMY) (INTEGER 4 0 0 INTEGER ())
0 0 () (1 0 DEFERRED () ()) 0 () () () 0 0)
65 'xa' '' 'xa' 56 ((VARIABLE IN UNKNOWN-PROC UNKNOWN UNKNOWN 0 0
DIMENSION DUMMY) (REAL 8 0 0 REAL ()) 0 0 () (1 0 ASSUMED_SHAPE (
CONSTANT (INTEGER 4 0 0 INTEGER ()) 0 '1') ()) 0 () () () 0 0)
66 'logt' '' 'logt' 56 ((VARIABLE IN UNKNOWN-PROC UNKNOWN UNKNOWN 0 0
DUMMY) (REAL 8 0 0 REAL ()) 0 0 () () 0 () () () 0 0)
67 'which_other' '' 'which_other' 56 ((VARIABLE IN UNKNOWN-PROC UNKNOWN
UNKNOWN 0 0 DUMMY) (INTEGER 4 0 0 INTEGER ()) 0 0 () () 0 () () () 0 0)
68 'other_value' '' 'other_value' 56 ((VARIABLE IN UNKNOWN-PROC UNKNOWN
UNKNOWN 0 0 DUMMY) (REAL 8 0 0 REAL ()) 0 0 () () 0 () () () 0 0)
69 'logrho_tol' '' 'logrho_tol' 56 ((VARIABLE IN UNKNOWN-PROC UNKNOWN
UNKNOWN 0 0 DUMMY) (REAL 8 0 0 REAL ()) 0 0 () () 0 () () () 0 0)
70 'other_tol' '' 'other_tol' 56 ((VARIABLE IN UNKNOWN-PROC UNKNOWN
UNKNOWN 0 0 DUMMY) (REAL 8 0 0 REAL ()) 0 0 () () 0 () () () 0 0)
71 'max_iter' '' 'max_iter' 56 ((VARIABLE IN UNKNOWN-PROC UNKNOWN
UNKNOWN 0 0 DUMMY) (INTEGER 4 0 0 INTEGER ()) 0 0 () () 0 () () () 0 0)
72 'logrho_guess' '' 'logrho_guess' 56 ((VARIABLE IN UNKNOWN-PROC
UNKNOWN UNKNOWN 0 0 DUMMY) (REAL 8 0 0 REAL ()) 0 0 () () 0 () () () 0 0)
73 'logrho_bnd1' '' 'logrho_bnd1' 56 ((VARIABLE IN UNKNOWN-PROC UNKNOWN
UNKNOWN 0 0 DUMMY) (REAL 8 0 0 REAL ()) 0 0 () () 0 () () () 0 0)
74 'logrho_bnd2' '' 'logrho_bnd2' 56 ((VARIABLE IN UNKNOWN-PROC UNKNOWN
UNKNOWN 0 0 DUMMY) (REAL 8 0 0 REAL ()) 0 0 () () 0 () () () 0 0)
75 'other_at_bnd1' '' 'other_at_bnd1' 56 ((VARIABLE IN UNKNOWN-PROC
UNKNOWN UNKNOWN 0 0 DUMMY) (REAL 8 0 0 REAL ()) 0 0 () () 0 () () () 0 0)
76 'other_at_bnd2' '' 'other_at_bnd2' 56 ((VARIABLE IN UNKNOWN-PROC
UNKNOWN UNKNOWN 0 0 DUMMY) (REAL 8 0 0 REAL ()) 0 0 () () 0 () () () 0 0)
77 'logrho_result' '' 'logrho_result' 56 ((VARIABLE OUT UNKNOWN-PROC
UNKNOWN UNKNOWN 0 0 DUMMY) (REAL 8 0 0 REAL ()) 0 0 () () 0 () () () 0 0)
78 'res' '' 'res' 56 ((VARIABLE OUT UNKNOWN-PROC UNKNOWN UNKNOWN 0 0
DIMENSION DUMMY) (REAL 8 0 0 REAL ()) 0 0 () (1 0 EXPLICIT (CONSTANT (
INTEGER 4 0 0 INTEGER ()) 0 '1') (CONSTANT (INTEGER 4 0 0 INTEGER ()) 0
'16')) 0 () () () 0 0)
79 'd_dlnrho_c_t' '' 'd_dlnrho_c_t' 56 ((VARIABLE OUT UNKNOWN-PROC
UNKNOWN UNKNOWN 0 0 DIMENSION DUMMY) (REAL 8 0 0 REAL ()) 0 0 () (1 0
EXPLICIT (CONSTANT (INTEGER 4 0 0 INTEGER ()) 0 '1') (CONSTANT (INTEGER
4 0 0 INTEGER ()) 0 '16')) 0 () () () 0 0)
80 'd_dlnt_c_rho' '' 'd_dlnt_c_rho' 56 ((VARIABLE OUT UNKNOWN-PROC
UNKNOWN UNKNOWN 0 0 DIMENSION DUMMY) (REAL 8 0 0 REAL ()) 0 0 () (1 0
EXPLICIT (CONSTANT (INTEGER 4 0 0 INTEGER ()) 0 '1') (CONSTANT (INTEGER
4 0 0 INTEGER ()) 0 '16')) 0 () () () 0 0)
81 'eos_calls' '' 'eos_calls' 56 ((VARIABLE OUT UNKNOWN-PROC UNKNOWN
UNKNOWN 0 0 DUMMY) (INTEGER 4 0 0 INTEGER ()) 0 0 () () 0 () () () 0 0)
82 'ierr' '' 'ierr' 56 ((VARIABLE OUT UNKNOWN-PROC UNKNOWN UNKNOWN 0 0
DUMMY) (INTEGER 4 0 0 INTEGER ()) 0 0 () () 0 () () () 0 0)
)

('exp' 0 2 'i_dlnp' 0 3 'i_dlnp2' 0 4 'i_dlnpdlnt' 0 5 'i_dlnrho' 0 6
'i_dlnrho2' 0 7 'i_dlnrhodlnt' 0 8 'i_dlnt' 0 9 'i_dlnt2' 0 10 'i_dp' 0
11 'i_dp2' 0 12 'i_dpdt' 0 13 'i_drho' 0 14 'i_drho2' 0 15 'i_drhodt' 0
16 'i_dt' 0 17 'i_dt2' 0 18 'i_dx' 0 19 'i_dx2' 0 20 'i_dxdy' 0 21 'i_dy'
0 22 'i_dy2' 0 23 'i_dz' 0 24 'i_dz2' 0 25 'i_dzdy' 0 26 'i_e' 0 27 'i_p'
0 28 'i_s' 0 29 'i_val' 0 30 'log10' 0 31 'logexp' 0 32 'mixdbg' 0 33
'num_derivs' 0 34 'water_eos_get' 0 35 'water_eos_get_rho' 0 55
'water_eos_get_t' 0 83 'watereos_def' 0 111 'watereos_lib' 0 112)
