GFORTRAN module version '6' created from ../public/watereos_def.f on Mon Apr 23 22:30:22 2012
MD5:25a7f7a3fc8c43f9575021b91abd2d01 -- If you edit this, you'll get what you deserve.

(() () () () () () () () () () () () () () () () () () () () () () () ()
() () ())

()

()

()

()

()

(2 'exp' '(intrinsic)' 'exp' 1 ((PROCEDURE UNKNOWN-INTENT UNKNOWN-PROC
UNKNOWN UNKNOWN 0 0 FUNCTION) (UNKNOWN 0 0 0 UNKNOWN ()) 0 0 () () 2 ()
() () 0 0)
3 'i_dlnp' 'watereos_def' 'i_dlnp' 1 ((PARAMETER UNKNOWN-INTENT
UNKNOWN-PROC UNKNOWN IMPLICIT-SAVE 0 0) (INTEGER 4 0 0 INTEGER ()) 0 0 ()
(CONSTANT (INTEGER 4 0 0 INTEGER ()) 0 '2') () 0 () () () 0 0)
4 'i_dlnp2' 'watereos_def' 'i_dlnp2' 1 ((PARAMETER UNKNOWN-INTENT
UNKNOWN-PROC UNKNOWN IMPLICIT-SAVE 0 0) (INTEGER 4 0 0 INTEGER ()) 0 0 ()
(CONSTANT (INTEGER 4 0 0 INTEGER ()) 0 '4') () 0 () () () 0 0)
5 'i_dlnpdlnt' 'watereos_def' 'i_dlnpdlnt' 1 ((PARAMETER UNKNOWN-INTENT
UNKNOWN-PROC UNKNOWN IMPLICIT-SAVE 0 0) (INTEGER 4 0 0 INTEGER ()) 0 0 ()
(CONSTANT (INTEGER 4 0 0 INTEGER ()) 0 '6') () 0 () () () 0 0)
6 'i_dlnrho' 'watereos_def' 'i_dlnrho' 1 ((PARAMETER UNKNOWN-INTENT
UNKNOWN-PROC UNKNOWN IMPLICIT-SAVE 0 0) (INTEGER 4 0 0 INTEGER ()) 0 0 ()
(CONSTANT (INTEGER 4 0 0 INTEGER ()) 0 '2') () 0 () () () 0 0)
7 'i_dlnrho2' 'watereos_def' 'i_dlnrho2' 1 ((PARAMETER UNKNOWN-INTENT
UNKNOWN-PROC UNKNOWN IMPLICIT-SAVE 0 0) (INTEGER 4 0 0 INTEGER ()) 0 0 ()
(CONSTANT (INTEGER 4 0 0 INTEGER ()) 0 '4') () 0 () () () 0 0)
8 'i_dlnrhodlnt' 'watereos_def' 'i_dlnrhodlnt' 1 ((PARAMETER
UNKNOWN-INTENT UNKNOWN-PROC UNKNOWN IMPLICIT-SAVE 0 0) (INTEGER 4 0 0
INTEGER ()) 0 0 () (CONSTANT (INTEGER 4 0 0 INTEGER ()) 0 '6') () 0 () ()
() 0 0)
9 'i_dlnt' 'watereos_def' 'i_dlnt' 1 ((PARAMETER UNKNOWN-INTENT
UNKNOWN-PROC UNKNOWN IMPLICIT-SAVE 0 0) (INTEGER 4 0 0 INTEGER ()) 0 0 ()
(CONSTANT (INTEGER 4 0 0 INTEGER ()) 0 '3') () 0 () () () 0 0)
10 'i_dlnt2' 'watereos_def' 'i_dlnt2' 1 ((PARAMETER UNKNOWN-INTENT
UNKNOWN-PROC UNKNOWN IMPLICIT-SAVE 0 0) (INTEGER 4 0 0 INTEGER ()) 0 0 ()
(CONSTANT (INTEGER 4 0 0 INTEGER ()) 0 '5') () 0 () () () 0 0)
11 'i_dp' 'watereos_def' 'i_dp' 1 ((PARAMETER UNKNOWN-INTENT
UNKNOWN-PROC UNKNOWN IMPLICIT-SAVE 0 0) (INTEGER 4 0 0 INTEGER ()) 0 0 ()
(CONSTANT (INTEGER 4 0 0 INTEGER ()) 0 '2') () 0 () () () 0 0)
12 'i_dp2' 'watereos_def' 'i_dp2' 1 ((PARAMETER UNKNOWN-INTENT
UNKNOWN-PROC UNKNOWN IMPLICIT-SAVE 0 0) (INTEGER 4 0 0 INTEGER ()) 0 0 ()
(CONSTANT (INTEGER 4 0 0 INTEGER ()) 0 '4') () 0 () () () 0 0)
13 'i_dpdt' 'watereos_def' 'i_dpdt' 1 ((PARAMETER UNKNOWN-INTENT
UNKNOWN-PROC UNKNOWN IMPLICIT-SAVE 0 0) (INTEGER 4 0 0 INTEGER ()) 0 0 ()
(CONSTANT (INTEGER 4 0 0 INTEGER ()) 0 '6') () 0 () () () 0 0)
14 'i_drho' 'watereos_def' 'i_drho' 1 ((PARAMETER UNKNOWN-INTENT
UNKNOWN-PROC UNKNOWN IMPLICIT-SAVE 0 0) (INTEGER 4 0 0 INTEGER ()) 0 0 ()
(CONSTANT (INTEGER 4 0 0 INTEGER ()) 0 '2') () 0 () () () 0 0)
15 'i_drho2' 'watereos_def' 'i_drho2' 1 ((PARAMETER UNKNOWN-INTENT
UNKNOWN-PROC UNKNOWN IMPLICIT-SAVE 0 0) (INTEGER 4 0 0 INTEGER ()) 0 0 ()
(CONSTANT (INTEGER 4 0 0 INTEGER ()) 0 '4') () 0 () () () 0 0)
16 'i_drhodt' 'watereos_def' 'i_drhodt' 1 ((PARAMETER UNKNOWN-INTENT
UNKNOWN-PROC UNKNOWN IMPLICIT-SAVE 0 0) (INTEGER 4 0 0 INTEGER ()) 0 0 ()
(CONSTANT (INTEGER 4 0 0 INTEGER ()) 0 '6') () 0 () () () 0 0)
17 'i_dt' 'watereos_def' 'i_dt' 1 ((PARAMETER UNKNOWN-INTENT
UNKNOWN-PROC UNKNOWN IMPLICIT-SAVE 0 0) (INTEGER 4 0 0 INTEGER ()) 0 0 ()
(CONSTANT (INTEGER 4 0 0 INTEGER ()) 0 '3') () 0 () () () 0 0)
18 'i_dt2' 'watereos_def' 'i_dt2' 1 ((PARAMETER UNKNOWN-INTENT
UNKNOWN-PROC UNKNOWN IMPLICIT-SAVE 0 0) (INTEGER 4 0 0 INTEGER ()) 0 0 ()
(CONSTANT (INTEGER 4 0 0 INTEGER ()) 0 '5') () 0 () () () 0 0)
19 'i_dx' 'watereos_def' 'i_dx' 1 ((PARAMETER UNKNOWN-INTENT
UNKNOWN-PROC UNKNOWN IMPLICIT-SAVE 0 0) (INTEGER 4 0 0 INTEGER ()) 0 0 ()
(CONSTANT (INTEGER 4 0 0 INTEGER ()) 0 '2') () 0 () () () 0 0)
20 'i_dx2' 'watereos_def' 'i_dx2' 1 ((PARAMETER UNKNOWN-INTENT
UNKNOWN-PROC UNKNOWN IMPLICIT-SAVE 0 0) (INTEGER 4 0 0 INTEGER ()) 0 0 ()
(CONSTANT (INTEGER 4 0 0 INTEGER ()) 0 '4') () 0 () () () 0 0)
21 'i_dxdy' 'watereos_def' 'i_dxdy' 1 ((PARAMETER UNKNOWN-INTENT
UNKNOWN-PROC UNKNOWN IMPLICIT-SAVE 0 0) (INTEGER 4 0 0 INTEGER ()) 0 0 ()
(CONSTANT (INTEGER 4 0 0 INTEGER ()) 0 '6') () 0 () () () 0 0)
22 'i_dy' 'watereos_def' 'i_dy' 1 ((PARAMETER UNKNOWN-INTENT
UNKNOWN-PROC UNKNOWN IMPLICIT-SAVE 0 0) (INTEGER 4 0 0 INTEGER ()) 0 0 ()
(CONSTANT (INTEGER 4 0 0 INTEGER ()) 0 '3') () 0 () () () 0 0)
23 'i_dy2' 'watereos_def' 'i_dy2' 1 ((PARAMETER UNKNOWN-INTENT
UNKNOWN-PROC UNKNOWN IMPLICIT-SAVE 0 0) (INTEGER 4 0 0 INTEGER ()) 0 0 ()
(CONSTANT (INTEGER 4 0 0 INTEGER ()) 0 '5') () 0 () () () 0 0)
24 'i_dz' 'watereos_def' 'i_dz' 1 ((PARAMETER UNKNOWN-INTENT
UNKNOWN-PROC UNKNOWN IMPLICIT-SAVE 0 0) (INTEGER 4 0 0 INTEGER ()) 0 0 ()
(CONSTANT (INTEGER 4 0 0 INTEGER ()) 0 '2') () 0 () () () 0 0)
25 'i_dz2' 'watereos_def' 'i_dz2' 1 ((PARAMETER UNKNOWN-INTENT
UNKNOWN-PROC UNKNOWN IMPLICIT-SAVE 0 0) (INTEGER 4 0 0 INTEGER ()) 0 0 ()
(CONSTANT (INTEGER 4 0 0 INTEGER ()) 0 '4') () 0 () () () 0 0)
26 'i_dzdy' 'watereos_def' 'i_dzdy' 1 ((PARAMETER UNKNOWN-INTENT
UNKNOWN-PROC UNKNOWN IMPLICIT-SAVE 0 0) (INTEGER 4 0 0 INTEGER ()) 0 0 ()
(CONSTANT (INTEGER 4 0 0 INTEGER ()) 0 '6') () 0 () () () 0 0)
27 'i_e' 'watereos_def' 'i_e' 1 ((PARAMETER UNKNOWN-INTENT UNKNOWN-PROC
UNKNOWN IMPLICIT-SAVE 0 0) (INTEGER 4 0 0 INTEGER ()) 0 0 () (CONSTANT (
INTEGER 4 0 0 INTEGER ()) 0 '2') () 0 () () () 0 0)
28 'i_p' 'watereos_def' 'i_p' 1 ((PARAMETER UNKNOWN-INTENT UNKNOWN-PROC
UNKNOWN IMPLICIT-SAVE 0 0) (INTEGER 4 0 0 INTEGER ()) 0 0 () (CONSTANT (
INTEGER 4 0 0 INTEGER ()) 0 '1') () 0 () () () 0 0)
29 'i_s' 'watereos_def' 'i_s' 1 ((PARAMETER UNKNOWN-INTENT UNKNOWN-PROC
UNKNOWN IMPLICIT-SAVE 0 0) (INTEGER 4 0 0 INTEGER ()) 0 0 () (CONSTANT (
INTEGER 4 0 0 INTEGER ()) 0 '3') () 0 () () () 0 0)
30 'i_val' 'watereos_def' 'i_val' 1 ((PARAMETER UNKNOWN-INTENT
UNKNOWN-PROC UNKNOWN IMPLICIT-SAVE 0 0) (INTEGER 4 0 0 INTEGER ()) 0 0 ()
(CONSTANT (INTEGER 4 0 0 INTEGER ()) 0 '1') () 0 () () () 0 0)
31 'log10' '(intrinsic)' 'log10' 1 ((PROCEDURE UNKNOWN-INTENT
UNKNOWN-PROC UNKNOWN UNKNOWN 0 0 FUNCTION) (UNKNOWN 0 0 0 UNKNOWN ()) 0
0 () () 31 () () () 0 0)
32 'logexp' 'watereos_def' 'logexp' 1 ((PARAMETER UNKNOWN-INTENT
UNKNOWN-PROC UNKNOWN IMPLICIT-SAVE 0 0) (REAL 8 0 0 REAL ()) 0 0 () (
CONSTANT (REAL 8 0 0 REAL ()) 0 '0.457cb3b4e13ca4@1') () 0 () () () 0 0)
33 'mixdbg' 'watereos_def' 'mixdbg' 1 ((PARAMETER UNKNOWN-INTENT
UNKNOWN-PROC UNKNOWN IMPLICIT-SAVE 0 0) (LOGICAL 4 0 0 LOGICAL ()) 0 0 ()
(CONSTANT (LOGICAL 4 0 0 LOGICAL ()) 0 0) () 0 () () () 0 0)
34 'num_derivs' 'watereos_def' 'num_derivs' 1 ((PARAMETER UNKNOWN-INTENT
UNKNOWN-PROC UNKNOWN IMPLICIT-SAVE 0 0) (INTEGER 4 0 0 INTEGER ()) 0 0 ()
(CONSTANT (INTEGER 4 0 0 INTEGER ()) 0 '6') () 0 () () () 0 0)
35 'watereos_def' 'watereos_def' 'watereos_def' 1 ((MODULE
UNKNOWN-INTENT UNKNOWN-PROC UNKNOWN UNKNOWN 0 0) (UNKNOWN 0 0 0 UNKNOWN
()) 0 0 () () 0 () () () 0 0)
)

('exp' 0 2 'i_dlnp' 0 3 'i_dlnp2' 0 4 'i_dlnpdlnt' 0 5 'i_dlnrho' 0 6
'i_dlnrho2' 0 7 'i_dlnrhodlnt' 0 8 'i_dlnt' 0 9 'i_dlnt2' 0 10 'i_dp' 0
11 'i_dp2' 0 12 'i_dpdt' 0 13 'i_drho' 0 14 'i_drho2' 0 15 'i_drhodt' 0
16 'i_dt' 0 17 'i_dt2' 0 18 'i_dx' 0 19 'i_dx2' 0 20 'i_dxdy' 0 21 'i_dy'
0 22 'i_dy2' 0 23 'i_dz' 0 24 'i_dz2' 0 25 'i_dzdy' 0 26 'i_e' 0 27 'i_p'
0 28 'i_s' 0 29 'i_val' 0 30 'log10' 0 31 'logexp' 0 32 'mixdbg' 0 33
'num_derivs' 0 34 'watereos_def' 0 35)
